<svg xmlns="http://www.w3.org/2000/svg" viewBox="0 0 512 512" xmlns:v="https://vecta.io/nano">
<g fill="#fff">
    <path clip-path="none" d="M25.5 20.935a9.47 9.47 0 0 1-12.574 4.578 9.48 9.48 0 0 1-4.577-12.578 9.47 9.47 0 0 1 12.574-4.578A9.48 9.48 0 0 1 25.5 20.935zm-.85-.397a8.52 8.52 0 0 0-4.123-11.33c-4.27-1.992-9.335-.15-11.326 4.124a8.52 8.52 0 0 0 4.123 11.33c4.27 1.992 9.335.15 11.326-4.124zm1.67-12.675c-5.006-5.185-13.28-5.33-18.463-.322S2.528 20.824 7.534 26s13.28 5.33 18.463.322 5.328-13.284.322-18.468zm-.674.65c4.654 4.82 4.52 12.5-.3 17.145s-12.486 4.52-17.14-.3-4.52-12.5.3-17.145 12.486-4.52 17.14.3zm-17.7 22.78c7.923 4.952 18.372 2.54 23.323-5.386s2.538-18.377-5.385-23.33S7.523.04 2.572 7.964.033 26.34 7.956 31.294zm.496-.794C.96 25.816-1.316 15.955 3.366 8.46S17.906-1.312 25.4 3.372s9.77 14.544 5.087 22.04-14.54 9.772-22.033 5.088z" opacity=".133" transform="matrix(11.285609 0 0 11.285609 64.886745 64.888771)"/>
	
	<path transform="matrix(2.985984 0 0 2.985984 64.886745 64.888771)" d="M63.55.002V.02c-8.812.056-17.75 1.944-26.27 5.865-.888.4-1.28 1.463-.87 2.352s1.463 1.278 2.352.87c7.625-3.51 15.6-5.3 23.486-5.53v11.12c-11.75.418-23.398 5.003-32.514 13.81C10.144 47.43 9.6 78.716 28.52 98.314c9.233 9.564 21.446 14.606 33.768 15.047l.006 12.873c0 .97.76 1.766 1.73 1.766.094 0 .24.012.33-.002l1.45-.027-.008-3.514v-11.104c11.75-.418 23.394-5.017 32.5-13.822.732-.675.764-1.82.072-2.535s-1.84-.723-2.537-.014c-8.442 8.155-19.19 12.42-30.05 12.836V99.744c4.106-.204 8.19-1.114 12.06-2.738.426-.175.77-.508.953-.93.647-1.474-.85-2.98-2.326-2.34a32.2 32.2 0 0 1-10.687 2.459V31.832a32.18 32.18 0 0 1 11.844 2.982c.884.392 1.92.004 2.328-.873s.037-1.92-.832-2.344a35.57 35.57 0 0 0-13.34-3.309V18.217c11.4.44 22.632 5.1 31.184 13.97a1.77 1.77 0 0 0 2.533.074 1.77 1.77 0 0 0 .014-2.535c-9.233-9.564-21.41-14.588-33.73-15.03V3.576c22.208.66 43.2 13.6 53.125 35.176 13.958 30.348.702 66.216-29.637 80.178-7.384 3.398-15.37 5.29-23.484 5.527l.01 3.53.55-.01c8.626-.24 16.593-2.204 24.44-5.816 32.078-14.78 46.094-52.82 31.336-84.906C111.298 13.687 87.912-.153 63.55.002zm-1.3 18.223v10.068c-12.806.654-24.85 8.19-30.64 20.607-8.337 17.885-.58 39.196 17.3 47.537a35.73 35.73 0 0 0 13.34 3.307v10.074c-11.4-.435-22.632-5.106-31.184-13.965-17.59-18.22-17.08-47.2 1.135-64.797 8.44-8.153 19.19-12.415 30.05-12.832zm0 13.607V96.19a32.2 32.2 0 0 1-11.844-2.969C39.224 88.005 32.45 77.217 31.84 65.713h14.443a1.77 1.77 0 0 0 1.801-1.77c0-1-.812-1.79-1.8-1.773H31.89c-.013 0-.028 0-.04 0 .23-3.962 1.196-7.95 2.977-11.77 5.203-11.16 15.95-17.934 27.424-18.568z" clip-path="none"/>
</g></svg>